Module 3
…
---

### Omdøb søjler

`rename()` tager data som første argument og det nye søjle-navn sat lig med det gamle.

```r
(avocados <- rename(avocados, total_volume = `Total Volume`))
```

```
## # A tibble: 18,249 x 15
##          Date AveragePrice total_volume  `4046`    `4225` `4770`
##        <date>        <dbl>        <dbl>   <dbl>     <dbl>  <dbl>
##  1 2015-12-27         1.33     64236.62 1036.74  54454.85  48.16
##  2 2015-12-20         1.35     54876.98  674.28  44638.81  58.33
##  3 2015-12-13         0.93    118220.22  794.70 109149.67 130.50
##  4 2015-12-06         1.08     78992.15 1132.00  71976.41  72.58
##  5 2015-11-29         1.28     51039.60  941.48  43838.39  75.78
##  6 2015-11-22         1.26     55979.78 1184.27  48067.99  43.61
##  7 2015-11-15         0.99     83453.76 1368.92  73672.72  93.26
##  8 2015-11-08         0.98    109428.33  703.75 101815.36  80.00
##  9 2015-11-01         1.02     99811.42 1022.15  87315.57  85.34
## 10 2015-10-25         1.07     74338.76  842.40  64757.44 113.00
## # ... with 18,239 more rows, and 9 more variables: `Total Bags` <dbl>,
## #   `Small Bags` <dbl>, `Large Bags` <dbl>, `XLarge Bags` <dbl>,
## #   type <chr>, year <int>, region <chr>, month <dbl>, day <dbl>
```
…
--- 

### Grupper data med `group_by()`

`group_by()` tager data som første argument og efterfølgende hvilke søjler der skal grupperes på.

```r
by_region <- group_by(avocados, region,year)
summarise(by_region, avgprice = mean(AveragePrice, na.rm = TRUE))
```

```
## # A tibble: 216 x 3
## # Groups:   region [?]
##                 region  year avgprice
##                  <chr> <int>    <dbl>
##  1              Albany  2015 1.538750
##  2              Albany  2016 1.533942
##  3              Albany  2017 1.637830
##  4              Albany  2018 1.435833
##  5             Atlanta  2015 1.380577
##  6             Atlanta  2016 1.214135
##  7             Atlanta  2017 1.428774
##  8             Atlanta  2018 1.288750
##  9 BaltimoreWashington  2015 1.368846
## 10 BaltimoreWashington  2016 1.587596
## # ... with 206 more rows
```
…
